ES4_Cswap/fa.vcd
$date
	Tue Jul  4 19:40:48 2023
$end
$version
	Icarus Verilog
$end
$timescale
	1ps
$end
$scope module test $end
$var wire 1 ! s $end
$var wire 1 " cout $end
$var reg 1 # A $end
$var reg 1 $ B $end
$var reg 1 % C $end
$scope module fa $end
$var wire 1 # a $end
$var wire 1 & anb $end
$var wire 1 ' axb $end
$var wire 1 $ b $end
$var wire 1 % c $end
$var wire 1 ( cnaxb $end
$var wire 1 " cout $end
$var wire 1 ! s $end
$upscope $end
$upscope $end
$enddefinitions $end
#0
$dumpvars
0(
0'
0&
0%
0$
0#
0"
0!
$end
#1000
1!
1%
#2000
1'
0%
1$
#3000
1"
0!
1(
1%
#4000
0"
1!
0(
0%
0$
1#
#5000
1"
0!
1(
1%
#6000
0(
0'
1&
0%
1$
#7000
1!
1%
#8000
0"
0!
0&
0%
0$
0#
#9000
1!
1%
#10000
1'
0%
1$
#11000
1"
0!
1(
1%
#12000
0"
1!
0(
0%
0$
1#
#13000
1"
0!
1(
1%
#14000
0(
0'
1&
0%
1$
#15000
1!
1%
#16000
0"
0!
0&
0%
0$
0#
#17000
1!
1%
#18000
1'
0%
1$
#19000
1"
0!
1(
1%
#20000
0"
1!
0(
0%
0$
1#
#21000
1"
0!
1(
1%
#22000
0(
0'
1&
0%
1$
#23000
1!
1%
#24000
0"
0!
0&
0%
0$
0#
#25000
1!
1%
#26000
1'
0%
1$
#27000
1"
0!
1(
1%
#28000
0"
1!
0(
0%
0$
1#
#29000
1"
0!
1(
1%
#30000
0(
0'
1&
0%
1$
#31000
1!
1%
#32000
0"
0!
0&
0%
0$
0#
#33000
1!
1%
#34000
1'
0%
1$
#35000
1"
0!
1(
1%
#36000
0"
1!
0(
0%
0$
1#
#37000
1"
0!
1(
1%
#38000
0(
0'
1&
0%
1$
#39000
1!
1%
#40000
0"
0!
0&
0%
0$
0#
#41000
1!
1%
#42000
1'
0%
1$
#43000
1"
0!
1(
1%
#44000
0"
1!
0(
0%
0$
1#
#45000
1"
0!
1(
1%
#46000
0(
0'
1&
0%
1$
#47000
1!
1%
#48000
0"
0!
0&
0%
0$
0#
#49000
1!
1%
#50000
1'
0%
1$
#51000
1"
0!
1(
1%
#52000
0"
1!
0(
0%
0$
1#
#53000
1"
0!
1(
1%
#54000
0(
0'
1&
0%
1$
#55000
1!
1%
#56000
0"
0!
0&
0%
0$
0#
#57000
1!
1%
#58000
1'
0%
1$
#59000
1"
0!
1(
1%
#60000
0"
1!
0(
0%
0$
1#
#61000
1"
0!
1(
1%
#62000
0(
0'
1&
0%
1$
#63000
1!
1%
#64000
0"
0!
0&
0%
0$
0#
#65000
1!
1%
#66000
1'
0%
1$
#67000
1"
0!
1(
1%
#68000
0"
1!
0(
0%
0$
1#
#69000
1"
0!
1(
1%
#70000
0(
0'
1&
0%
1$
#71000
1!
1%
#72000
0"
0!
0&
0%
0$
0#
#73000
1!
1%
#74000
1'
0%
1$
#75000
1"
0!
1(
1%
#76000
0"
1!
0(
0%
0$
1#
#77000
1"
0!
1(
1%
#78000
0(
0'
1&
0%
1$
#79000
1!
1%
#80000
0"
0!
0&
0%
0$
0#
#81000
1!
1%
#82000
1'
0%
1$
#83000
1"
0!
1(
1%
#84000
0"
1!
0(
0%
0$
1#
#85000
1"
0!
1(
1%
#86000
0(
0'
1&
0%
1$
#87000
1!
1%
#88000
0"
0!
0&
0%
0$
0#
#89000
1!
1%
#90000
1'
0%
1$
#91000
1"
0!
1(
1%
#92000
0"
1!
0(
0%
0$
1#
#93000
1"
0!
1(
1%
#94000
0(
0'
1&
0%
1$
#95000
1!
1%
#96000
0"
0!
0&
0%
0$
0#
#97000
1!
1%
#98000
1'
0%
1$
#99000
1"
0!
1(
1%
#100000
0"
1!
0(
0%
0$
1#
